Pipline/test.vcd
$date
	Mon May 11 20:18:49 2020
$end
$version
	Icarus Verilog
$end
$timescale
	1s
$end
$scope module testbanch $end
$var reg 1 ! clk $end
$var reg 1 " rst $end
$scope module single_cpu $end
$var wire 1 ! clk $end
$var wire 1 # imm_command $end
$var wire 1 " rst $end
$var wire 1 $ ori $end
$var wire 1 % jump $end
$var wire 1 & imm $end
$var wire 1 ' bne $end
$var wire 1 ( andi $end
$var wire 1 ) addi $end
$var wire 6 * OpCode [5:0] $end
$var wire 9 + ConOut [8:0] $end
$scope module control_flow $end
$var wire 1 ) addi $end
$var wire 1 , alusrc $end
$var wire 1 ( andi $end
$var wire 1 - beq $end
$var wire 1 ' bne $end
$var wire 1 . branch $end
$var wire 1 & imm $end
$var wire 1 % j $end
$var wire 1 / lw $end
$var wire 1 0 memread $end
$var wire 1 1 memtoreg $end
$var wire 1 2 memwrite $end
$var wire 1 $ ori $end
$var wire 1 3 r $end
$var wire 1 4 regdst $end
$var wire 1 5 regwrite $end
$var wire 1 6 sw $end
$var wire 2 7 WB [1:0] $end
$var wire 9 8 Out [8:0] $end
$var wire 6 9 Op [5:0] $end
$var wire 3 : M [2:0] $end
$var wire 4 ; EXE [3:0] $end
$upscope $end
$scope module data_flow $end
$var wire 9 < ConOut [8:0] $end
$var wire 1 = ExtSel $end
$var wire 1 > IFFlush $end
$var wire 1 ? PCSrc $end
$var wire 1 ) addi $end
$var wire 1 ( andi $end
$var wire 1 ' bne $end
$var wire 1 ! clk $end
$var wire 1 # imm_command $end
$var wire 1 % jump $end
$var wire 1 $ ori $end
$var wire 1 " rst $end
$var wire 5 @ ws [4:0] $end
$var wire 32 A wd [31:0] $end
$var wire 5 B shamt [4:0] $end
$var wire 5 C rs3 [4:0] $end
$var wire 5 D rs2 [4:0] $end
$var wire 5 E rs1 [4:0] $end
$var wire 32 F rdata [31:0] $end
$var wire 32 G rd2_imm_out [31:0] $end
$var wire 32 H rd2 [31:0] $end
$var wire 32 I rd1 [31:0] $end
$var wire 32 J plus_4_out [31:0] $end
$var wire 32 K pc_out [31:0] $end
$var wire 32 L pc_in [31:0] $end
$var wire 32 M jabs [31:0] $end
$var wire 32 N imm_valuereg [31:0] $end
$var wire 16 O imm [15:0] $end
$var wire 6 P funct [5:0] $end
$var wire 32 Q ext [31:0] $end
$var wire 32 R command [31:0] $end
$var wire 32 S br [31:0] $end
$var wire 32 T alu_res [31:0] $end
$var wire 26 U address [25:0] $end
$var wire 32 V WriteDataOut [31:0] $end
$var wire 2 W WBreg_mem_wb [1:0] $end
$var wire 2 X WBreg_idex [1:0] $end
$var wire 2 Y WBreg [1:0] $end
$var wire 5 Z RegRtreg [4:0] $end
$var wire 5 [ RegRsreg [4:0] $end
$var wire 5 \ RegRdreg [4:0] $end
$var wire 5 ] RegRDreg_mem_wb [4:0] $end
$var wire 5 ^ RegRDreg [4:0] $end
$var wire 6 _ RegOpCode [5:0] $end
$var wire 32 ` PC_Plus4Reg [31:0] $end
$var wire 1 a PCWrite $end
$var wire 6 b OpCode [5:0] $end
$var wire 3 c Mreg_idex [2:0] $end
$var wire 3 d Mreg [2:0] $end
$var wire 32 e Memreg [31:0] $end
$var wire 32 f MUX3_forwardRD2_out [31:0] $end
$var wire 32 g MUX3_forwardRD1_out [31:0] $end
$var wire 32 h InstReg [31:0] $end
$var wire 1 i IFIDWrite $end
$var wire 9 j IDcontrol [8:0] $end
$var wire 1 k HazMuxCon $end
$var wire 2 l ForwardB [1:0] $end
$var wire 2 m ForwardA [1:0] $end
$var wire 4 n EXreg [3:0] $end
$var wire 32 o DataBreg [31:0] $end
$var wire 32 p DataAreg [31:0] $end
$var wire 32 q ALUreg_mem_wb [31:0] $end
$var wire 32 r ALUreg [31:0] $end
$var wire 1 s ALUSrc $end
$scope module EXMEM $end
$var wire 1 ! clock $end
$var wire 1 " rst $end
$var wire 32 t WriteDataIn [31:0] $end
$var wire 2 u WB [1:0] $end
$var wire 5 v RegRD [4:0] $end
$var wire 3 w M [2:0] $end
$var wire 32 x ALUOut [31:0] $end
$var reg 32 y ALUreg [31:0] $end
$var reg 3 z Mreg [2:0] $end
$var reg 5 { RegRDreg [4:0] $end
$var reg 2 | WBreg [1:0] $end
$var reg 32 } WriteDataOut [31:0] $end
$upscope $end
$scope module ForwardUnit $end
$var wire 5 ~ MEMRegRd [4:0] $end
$var wire 1 !" MEM_RegWrite $end
$var wire 1 "" WB_RegWrite $end
$var wire 5 #" WBRegRd [4:0] $end
$var wire 5 $" EXRegRt [4:0] $end
$var wire 5 %" EXRegRs [4:0] $end
$var reg 2 &" ForwardA [1:0] $end
$var reg 2 '" ForwardB [1:0] $end
$upscope $end
$scope module GPRs $end
$var wire 1 (" RegWrite $end
$var wire 1 ! clk $end
$var wire 32 )" rd1 [31:0] $end
$var wire 32 *" rd2 [31:0] $end
$var wire 1 " rst $end
$var wire 5 +" ws [4:0] $end
$var wire 32 ," wd [31:0] $end
$var wire 5 -" rs2 [4:0] $end
$var wire 5 ." rs1 [4:0] $end
$var integer 32 /" i [31:0] $end
$upscope $end
$scope module HazardUnit $end
$var wire 1 0" EXMemRead $end
$var wire 5 1" IDRegRt [4:0] $end
$var wire 5 2" IDRegRs [4:0] $end
$var wire 5 3" EXRegRt [4:0] $end
$var reg 1 k HazMuxCon $end
$var reg 1 i IFIDWrite $end
$var reg 1 a PCWrite $end
$upscope $end
$scope module IDEX $end
$var wire 32 4" DataA [31:0] $end
$var wire 32 5" DataB [31:0] $end
$var wire 4 6" EX [3:0] $end
$var wire 3 7" M [2:0] $end
$var wire 2 8" WB [1:0] $end
$var wire 1 ! clock $end
$var wire 1 " rst $end
$var wire 32 9" imm_value [31:0] $end
$var wire 5 :" RegRt [4:0] $end
$var wire 5 ;" RegRs [4:0] $end
$var wire 5 <" RegRd [4:0] $end
$var wire 6 =" OpCode [5:0] $end
$var reg 32 >" DataAreg [31:0] $end
$var reg 32 ?" DataBreg [31:0] $end
$var reg 4 @" EXreg [3:0] $end
$var reg 3 A" Mreg [2:0] $end
$var reg 6 B" RegOpCode [5:0] $end
$var reg 5 C" RegRdreg [4:0] $end
$var reg 5 D" RegRsreg [4:0] $end
$var reg 5 E" RegRtreg [4:0] $end
$var reg 2 F" WBreg [1:0] $end
$var reg 32 G" imm_valuereg [31:0] $end
$upscope $end
$scope module IFID $end
$var wire 1 i IFIDWrite $end
$var wire 1 ! clock $end
$var wire 1 > flush $end
$var wire 1 " rst $end
$var wire 32 H" PC_Plus4 [31:0] $end
$var wire 32 I" Inst [31:0] $end
$var reg 32 J" InstReg [31:0] $end
$var reg 32 K" PC_Plus4Reg [31:0] $end
$upscope $end
$scope module MEMWB $end
$var wire 32 L" ALUOut [31:0] $end
$var wire 5 M" RegRD [4:0] $end
$var wire 2 N" WB [1:0] $end
$var wire 1 ! clock $end
$var wire 1 " rst $end
$var wire 32 O" Memout [31:0] $end
$var reg 32 P" ALUreg [31:0] $end
$var reg 32 Q" Memreg [31:0] $end
$var reg 5 R" RegRDreg [4:0] $end
$var reg 2 S" WBreg [1:0] $end
$upscope $end
$scope module MUX3_forwardRD1 $end
$var wire 2 T" A [1:0] $end
$var wire 32 U" X0 [31:0] $end
$var wire 32 V" X2 [31:0] $end
$var wire 32 W" X1 [31:0] $end
$var reg 32 X" Out [31:0] $end
$upscope $end
$scope module MUX3_forwardRD2 $end
$var wire 2 Y" A [1:0] $end
$var wire 32 Z" X0 [31:0] $end
$var wire 32 [" X2 [31:0] $end
$var wire 32 \" X1 [31:0] $end
$var reg 32 ]" Out [31:0] $end
$upscope $end
$scope module PCcontrol $end
$var wire 1 ? PCSrc $end
$var wire 1 % jump $end
$var wire 32 ^" pc_plus_4 [31:0] $end
$var wire 32 _" out [31:0] $end
$var wire 32 `" jabs [31:0] $end
$var wire 32 a" br [31:0] $end
$var wire 32 b" PCMuxOut [31:0] $end
$upscope $end
$scope module WRcontrol $end
$var wire 1 c" WBSrc $end
$var wire 32 d" alu_out [31:0] $end
$var wire 32 e" data_memory_out [31:0] $end
$var reg 32 f" out [31:0] $end
$upscope $end
$scope module alu $end
$var wire 32 g" in1 [31:0] $end
$var wire 6 h" op_code [5:0] $end
$var wire 32 i" in2 [31:0] $end
$var reg 32 j" out [31:0] $end
$upscope $end
$scope module choose_rd2_imm $end
$var wire 1 s BSrc $end
$var wire 32 k" imm [31:0] $end
$var wire 32 l" rd2 [31:0] $end
$var wire 32 m" out [31:0] $end
$upscope $end
$scope module choose_write_reg $end
$var wire 1 n" RegDst $end
$var wire 5 o" rs2 [4:0] $end
$var wire 5 p" rs3 [4:0] $end
$var reg 5 q" ws [4:0] $end
$upscope $end
$scope module comand_parser $end
$var wire 32 r" command [31:0] $end
$var wire 6 s" op_code [5:0] $end
$var reg 26 t" address [25:0] $end
$var reg 6 u" funct [5:0] $end
$var reg 16 v" imm [15:0] $end
$var reg 5 w" rs1 [4:0] $end
$var reg 5 x" rs2 [4:0] $end
$var reg 5 y" shamt [4:0] $end
$var reg 5 z" ws [4:0] $end
$upscope $end
$scope module data_memory $end
$var wire 1 {" MemRead $end
$var wire 1 |" MemWrite $end
$var wire 32 }" addr [31:0] $end
$var wire 1 ! clk $end
$var wire 1 " rst $end
$var wire 32 ~" wdata [31:0] $end
$var reg 32 !# rdata [31:0] $end
$var integer 32 "# i [31:0] $end
$upscope $end
$scope module extend $end
$var wire 26 ## in [25:0] $end
$var wire 32 $# out [31:0] $end
$upscope $end
$scope module imm_ext $end
$var wire 1 = ExtSel $end
$var wire 32 %# ext [31:0] $end
$var wire 16 &# imm [15:0] $end
$upscope $end
$scope module inst_memory $end
$var wire 32 '# addr [31:0] $end
$var reg 32 (# inst [31:0] $end
$upscope $end
$scope module pc $end
$var wire 1 a PCWrite $end
$var wire 1 ! clk $end
$var wire 32 )# in [31:0] $end
$var wire 1 " rst $end
$var reg 32 *# out [31:0] $end
$upscope $end
$scope module plus_4 $end
$var wire 32 +# in [31:0] $end
$var wire 32 ,# out [31:0] $end
$upscope $end
$scope module two_in_sum $end
$var wire 32 -# imm [31:0] $end
$var wire 32 .# in1 [31:0] $end
$var wire 32 /# out [31:0] $end
$upscope $end
$upscope $end
$upscope $end
$upscope $end
$enddefinitions $end
#0
$dumpvars
bx /#
b0 .#
bx -#
b100 ,#
b0 +#
b0 *#
b100 )#
b10001100000000010000000000000001 (#
b0 '#
bx &#
bx %#
b0xxxxxxxxxxxxxxxxxxxxxxxxxx $#
bx ##
b100000 "#
bx !#
b0 ~"
b0 }"
0|"
0{"
b0 z"
b0 y"
b0 x"
b0 w"
bx v"
b0 u"
bx t"
b0 s"
b0 r"
b0 q"
b0 p"
b0 o"
0n"
b0 m"
b0 l"
b0 k"
b0 j"
b0 i"
b0 h"
b0 g"
b0 f"
b0 e"
b0 d"
0c"
b100 b"
bx a"
b0xxxxxxxxxxxxxxxxxxxxxxxxxx `"
b100 _"
b100 ^"
b0 ]"
b0 \"
b0 ["
b0 Z"
b0 Y"
b0 X"
b0 W"
b0 V"
b0 U"
b0 T"
b0 S"
b0 R"
b0 Q"
b0 P"
bx O"
b0 N"
b0 M"
b0 L"
b0 K"
b0 J"
b10001100000000010000000000000001 I"
b100 H"
b0 G"
b0 F"
b0 E"
b0 D"
b0 C"
b0 B"
b0 A"
b0 @"
b0 ?"
b0 >"
b0 ="
b0 <"
b0 ;"
b0 :"
bx 9"
b1 8"
b0 7"
b1010 6"
b10 5"
b10 4"
b0 3"
b0 2"
b0 1"
00"
b100000 /"
b0 ."
b0 -"
b0 ,"
b0 +"
b10 *"
b10 )"
0("
b0 '"
b0 &"
b0 %"
b0 $"
b0 #"
0""
0!"
b0 ~
b0 }
b0 |
b0 {
b0 z
b0 y
b0 x
b0 w
b0 v
b0 u
b0 t
0s
b0 r
b0 q
b0 p
b0 o
b0 n
b0 m
b0 l
1k
b10001010 j
1i
b0 h
b0 g
b0 f
b0 e
b0 d
b0 c
b0 b
1a
b0 `
b0 _
b0 ^
b0 ]
b0 \
b0 [
b0 Z
b0 Y
b0 X
b0 W
b0 V
bx U
b0 T
bx S
b10001100000000010000000000000001 R
bx Q
b0 P
bx O
b0 N
b0xxxxxxxxxxxxxxxxxxxxxxxxxx M
b100 L
b0 K
b100 J
b10 I
b10 H
b0 G
bx F
b0 E
b0 D
b0 C
b0 B
b0 A
b0 @
0?
0>
1=
b10001010 <
b1010 ;
b0 :
b0 9
b10001010 8
b1 7
06
15
14
13
02
01
00
0/
0.
0-
0,
b10001010 +
b0 *
0)
0(
0'
0&
0%
0$
z#
1"
0!
$end
#1
1s
1,
b10 7"
b11 8"
11
b10 :
10
1/
b11 7
15
b100 6"
b110100100 j
04
b110100100 +
b110100100 8
b110100100 <
b100 ;
03
b1000 S
b1000 a"
b1000 /#
b0 M
b0 `"
b0 $#
b0 U
b0 t"
b0 ##
b1 Q
b1 9"
b1 %#
b1 -#
b1 O
b1 v"
b1 &#
b1 D
b1 -"
b1 1"
b1 :"
b1 x"
b100011 *
b100011 9
b100011 b
b100011 ="
b100011 s"
b100 `
b100 K"
b100 .#
b10001100000000010000000000000001 h
b10001100000000010000000000000001 J"
b10001100000000010000000000000001 r"
b100000 /"
1!
#2
0!
0"
#3
b10 f
b10 t
b10 ]"
b10 l"
b10 g
b10 X"
b10 g"
b1000 L
b1000 _"
b1000 )#
b1000 b"
b100100000000010000000000000101 R
b100100000000010000000000000101 I"
b100100000000010000000000000101 (#
b11 T
b11 x
b11 j"
b1 @
b1 v
b1 +"
b1 q"
b1 G
b1 i"
b1 m"
bx A
bx ,"
bx W"
bx \"
bx f"
b1000 J
b1000 H"
b1000 ^"
b1000 ,#
b100 K
b100 '#
b100 *#
b100 +#
b100011 _
b100011 B"
b100011 h"
b1 Z
b1 $"
b1 3"
b1 E"
b1 o"
b1 N
b1 G"
b1 k"
b10 o
b10 ?"
b10 Z"
b10 p
b10 >"
b10 U"
b100 n
b100 @"
b10 c
b10 w
b10 A"
b11 X
b11 u
b11 F"
bx e
bx Q"
bx e"
1!
#4
0!
#5
b11 f
b11 t
b11 ]"
b11 l"
b101 T
b101 x
b101 j"
b11 G
b11 i"
b11 m"
0s
b0 ;
0,
05
b0 8"
b0 7"
b0 6"
b0 7
01
b0 +
b0 8
b0 <
b0 :
00
0/
b0 j
0k
0i
0a
b0 A
b0 ,"
b0 W"
b0 \"
b0 f"
b1100 L
b1100 _"
b1100 )#
b10 l
b10 '"
b10 Y"
b11 F
b11 O"
b11 !#
10"
1{"
1c"
1!"
b101 Q
b101 9"
b101 %#
b101 -#
b101 O
b101 v"
b101 &#
b1001 *
b1001 9
b1001 b
b1001 ="
b1001 s"
b1100 b"
b10000001000010000000000000111 R
b10000001000010000000000000111 I"
b10000001000010000000000000111 (#
b10 V
b10 }
b10 ~"
b1 ^
b1 {
b1 ~
b1 M"
b11 r
b11 y
b11 L"
b11 V"
b11 ["
b11 }"
b10 d
b10 z
b11 Y
b11 |
b11 N"
b11100 S
b11100 a"
b11100 /#
b1000 `
b1000 K"
b1000 .#
b100100000000010000000000000101 h
b100100000000010000000000000101 J"
b100100000000010000000000000101 r"
b1100 J
b1100 H"
b1100 ^"
b1100 ,#
b1000 K
b1000 '#
b1000 *#
b1000 +#
1!
#6
0!
#7
b111 T
b111 x
b111 j"
b101 G
b101 i"
b101 m"
b101 f
b101 t
b101 ]"
b101 l"
b101 F
b101 O"
b101 !#
b11 A
b11 ,"
b11 W"
b11 \"
b11 f"
1""
1("
b1001 _
b1001 B"
b1001 h"
b101 N
b101 G"
b101 k"
b0 n
b0 @"
b0 c
b0 w
b0 A"
b0 X
b0 u
b0 F"
b11 V
b11 }
b11 ~"
b101 r
b101 y
b101 L"
b101 V"
b101 ["
b101 }"
b1 ]
b1 #"
b1 R"
b11 q
b11 P"
b11 d"
b11 e
b11 Q"
b11 e"
b11 W
b11 S"
1!
#8
0!
#9
b100 T
b100 x
b100 j"
b10 G
b10 i"
b10 m"
b10 f
b10 t
b10 ]"
b10 l"
1k
1i
1a
b0 l
b0 '"
b0 Y"
b101 A
b101 ,"
b101 W"
b101 \"
b101 f"
00"
0{"
0c"
0!"
b101 q
b101 P"
b101 d"
b101 e
b101 Q"
b101 e"
b101 V
b101 }
b101 ~"
b111 r
b111 y
b111 L"
b111 V"
b111 ["
b111 }"
b0 d
b0 z
b0 Y
b0 |
b0 N"
b11 H
b11 *"
b11 5"
1!
#10
0!
#11
b0 R
b0 I"
b0 (#
b11 f
b11 t
b11 ]"
b11 l"
1>
1?
b101 T
b101 x
b101 j"
b11 G
b11 i"
b11 m"
b0 8"
b100 7"
b1 6"
0s
b1000001 j
b100 :
1.
1-
b1 ;
0,
b1000001 +
b1000001 8
b1000001 <
b0 7
05
0&
0)
b101000 L
b101000 _"
b101000 )#
b10000 b"
b111 Q
b111 9"
b111 %#
b111 -#
b111 O
b111 v"
b111 &#
b101 I
b101 )"
b101 4"
b1 E
b1 ."
b1 2"
b1 ;"
b1 w"
b100 *
b100 9
b100 b
b100 ="
b100 s"
0""
0("
b10000 J
b10000 H"
b10000 ^"
b10000 ,#
b1100 K
b1100 '#
b1100 *#
b1100 +#
b101000 S
b101000 a"
b101000 /#
b1100 `
b1100 K"
b1100 .#
b10000001000010000000000000111 h
b10000001000010000000000000111 J"
b10000001000010000000000000111 r"
b101 H
b101 *"
b101 5"
b11 o
b11 ?"
b11 Z"
b10 V
b10 }
b10 ~"
b100 r
b100 y
b100 L"
b100 V"
b100 ["
b100 }"
b111 q
b111 P"
b111 d"
b0 W
b0 S"
1!
#12
0!
#13
b101 G
b101 i"
b101 m"
b101 f
b101 t
b101 ]"
b101 l"
b101 g
b101 X"
b101 g"
0>
b1 8"
0?
b1 7
15
b0 7"
b1010 6"
b10001010 j
14
13
b0 :
0.
b10001010 +
b10001010 8
b10001010 <
b1010 ;
0-
b0 T
b0 x
b0 j"
b101100 L
b101100 _"
b101100 )#
b10 H
b10 *"
b10 5"
b0 D
b0 -"
b0 1"
b0 :"
b0 x"
b10 I
b10 )"
b10 4"
b0 E
b0 ."
b0 2"
b0 ;"
b0 w"
b0 *
b0 9
b0 b
b0 ="
b0 s"
b101100 b"
b1000000000000000000000011000 R
b1000000000000000000000011000 I"
b1000000000000000000000011000 (#
b100 q
b100 P"
b100 d"
b11 V
b11 }
b11 ~"
b101 r
b101 y
b101 L"
b101 V"
b101 ["
b101 }"
b100 _
b100 B"
b100 h"
b1 [
b1 %"
b1 D"
b111 N
b111 G"
b111 k"
b101 o
b101 ?"
b101 Z"
b101 p
b101 >"
b101 U"
b1 n
b1 @"
b100 c
b100 w
b100 A"
b11100 S
b11100 a"
b11100 /#
b0 `
b0 K"
b0 .#
b0 h
b0 J"
b0 r"
b101100 J
b101100 H"
b101100 ^"
b101100 ,#
b101000 K
b101000 '#
b101000 *#
b101000 +#
1!
#14
0!
#15
b10 G
b10 i"
b10 m"
b0 R
b0 I"
b0 (#
b10 g
b10 X"
b10 g"
b10 f
b10 t
b10 ]"
b10 l"
b0 8"
b0 7
05
b0 6"
b0 j
1>
04
b0 +
b0 8
b0 <
b0 ;
03
1%
b11000 L
b11000 _"
b11000 )#
b11000 b"
b11000 M
b11000 `"
b11000 $#
b11000 U
b11000 t"
b11000 ##
b10 *
b10 9
b10 b
b10 ="
b10 s"
b100 T
b100 x
b100 j"
b0 @
b0 v
b0 +"
b0 q"
1n"
b110000 J
b110000 H"
b110000 ^"
b110000 ,#
b101100 K
b101100 '#
b101100 *#
b101100 +#
b1001000 S
b1001000 a"
b1001000 /#
b101100 `
b101100 K"
b101100 .#
b1000000000000000000000011000 h
b1000000000000000000000011000 J"
b1000000000000000000000011000 r"
b0 _
b0 B"
b0 h"
b0 Z
b0 $"
b0 3"
b0 E"
b0 o"
b0 [
b0 %"
b0 D"
b10 o
b10 ?"
b10 Z"
b10 p
b10 >"
b10 U"
b1010 n
b1010 @"
b0 c
b0 w
b0 A"
b1 X
b1 u
b1 F"
b101 V
b101 }
b101 ~"
b0 r
b0 y
b0 L"
b0 V"
b0 ["
b0 }"
b100 d
b100 z
b101 q
b101 P"
b101 d"
1!
#16
0!
#17
b1 8"
b1 7
15
b1010 6"
b11100 L
b11100 _"
b11100 )#
b10001010 j
0>
b11100 b"
14
b10001010 +
b10001010 8
b10001010 <
b1010 ;
13
0%
1!"
b0 T
b0 x
b0 j"
0n"
b0 *
b0 9
b0 b
b0 ="
b0 s"
b10001000000100001 R
b10001000000100001 I"
b10001000000100001 (#
b0 q
b0 P"
b0 d"
b10 V
b10 }
b10 ~"
b0 ^
b0 {
b0 ~
b0 M"
b100 r
b100 y
b100 L"
b100 V"
b100 ["
b100 }"
b0 d
b0 z
b1 Y
b1 |
b1 N"
b10 _
b10 B"
b10 h"
b0 n
b0 @"
b0 X
b0 u
b0 F"
b11100 S
b11100 a"
b11100 /#
b0 `
b0 K"
b0 .#
b0 h
b0 J"
b0 r"
b11100 J
b11100 H"
b11100 ^"
b11100 ,#
b11000 K
b11000 '#
b11000 *#
b11000 +#
1!
#18
0!
#19
b100000 L
b100000 _"
b100000 )#
b100000 b"
b10101100011000100000000000000001 R
b10101100011000100000000000000001 I"
b10101100011000100000000000000001 (#
b100001 P
b100001 u"
b10 C
b10 <"
b10 z"
b101 H
b101 *"
b101 5"
b1 D
b1 -"
b1 1"
b1 :"
b1 x"
b100 T
b100 x
b100 j"
1n"
0!"
1""
1("
b100000 J
b100000 H"
b100000 ^"
b100000 ,#
b11100 K
b11100 '#
b11100 *#
b11100 +#
b111000 S
b111000 a"
b111000 /#
b11100 `
b11100 K"
b11100 .#
b10001000000100001 h
b10001000000100001 J"
b10001000000100001 r"
b0 _
b0 B"
b0 h"
b1010 n
b1010 @"
b1 X
b1 u
b1 F"
b0 r
b0 y
b0 L"
b0 V"
b0 ["
b0 }"
b0 Y
b0 |
b0 N"
b0 ]
b0 #"
b0 R"
b100 q
b100 P"
b100 d"
b1 W
b1 S"
1!
#20
0!
#21
b101 f
b101 t
b101 ]"
b101 l"
b0 R
b0 I"
b0 (#
b1001 T
b1001 x
b1001 j"
b111 G
b111 i"
b111 m"
1s
1,
b0 8"
b1 7"
b1 :
12
16
b0 7
05
b100 6"
b10100 j
04
b10100 +
b10100 8
b10100 <
b100 ;
03
b100100 L
b100100 _"
b100100 )#
0""
0("
1!"
b10 @
b10 v
b10 +"
b10 q"
b0 M
b0 `"
b0 $#
b0 U
b0 t"
b0 ##
b1 Q
b1 9"
b1 %#
b1 -#
b1 O
b1 v"
b1 &#
b0 P
b0 u"
b0 C
b0 <"
b0 z"
b10 H
b10 *"
b10 5"
b10 D
b10 -"
b10 1"
b10 :"
b10 x"
b11 E
b11 ."
b11 2"
b11 ;"
b11 w"
b101011 *
b101011 9
b101011 b
b101011 ="
b101011 s"
b100100 b"
b0 q
b0 P"
b0 d"
b0 W
b0 S"
b100 r
b100 y
b100 L"
b100 V"
b100 ["
b100 }"
b1 Y
b1 |
b1 N"
b10 \
b10 C"
b10 p"
b1 Z
b1 $"
b1 3"
b1 E"
b1 o"
b101 o
b101 ?"
b101 Z"
b10 I
b10 )"
b10 4"
b100100 S
b100100 a"
b100100 /#
b100000 `
b100000 K"
b100000 .#
b10101100011000100000000000000001 h
b10101100011000100000000000000001 J"
b10101100011000100000000000000001 r"
b100100 J
b100100 H"
b100100 ^"
b100100 ,#
b100000 K
b100000 '#
b100000 *#
b100000 +#
1!
#22
0!
#23
b1001 f
b1001 t
b1001 ]"
b1001 l"
b1 8"
b1 7
15
b1010 6"
14
13
0s
b1010 ;
0,
b0 7"
b10001010 j
b10001010 +
b10001010 8
b10001010 <
b0 :
02
06
b101000 L
b101000 _"
b101000 )#
b101000 b"
b101 H
b101 *"
b101 5"
b0 D
b0 -"
b0 1"
b0 :"
b0 x"
b101 I
b101 )"
b101 4"
b0 E
b0 ."
b0 2"
b0 ;"
b0 w"
b0 *
b0 9
b0 b
b0 ="
b0 s"
b1011 T
b1011 x
b1011 j"
b1001 G
b1001 i"
b1001 m"
0n"
b10 l
b10 '"
b10 Y"
1""
1("
b101000 J
b101000 H"
b101000 ^"
b101000 ,#
b100100 K
b100100 '#
b100100 *#
b100100 +#
b101000 S
b101000 a"
b101000 /#
b100100 `
b100100 K"
b100100 .#
b0 h
b0 J"
b0 r"
b101011 _
b101011 B"
b101011 h"
b0 \
b0 C"
b0 p"
b10 Z
b10 $"
b10 3"
b10 E"
b10 o"
b11 [
b11 %"
b11 D"
b1 N
b1 G"
b1 k"
b10 o
b10 ?"
b10 Z"
b100 n
b100 @"
b1 c
b1 w
b1 A"
b0 X
b0 u
b0 F"
b101 V
b101 }
b101 ~"
b10 ^
b10 {
b10 ~
b10 M"
b1001 r
b1001 y
b1001 L"
b1001 V"
b1001 ["
b1001 }"
b100 q
b100 P"
b100 d"
b1 W
b1 S"
1!
#24
0!
#25
b101 G
b101 i"
b101 m"
b1010 T
b1010 x
b1010 j"
b101 f
b101 t
b101 ]"
b101 l"
b101 g
b101 X"
b101 g"
b101100 L
b101100 _"
b101100 )#
1|"
0!"
b0 l
b0 '"
b0 Y"
b0 @
b0 v
b0 +"
b0 q"
1n"
b101100 b"
b1000000000000000000000011000 R
b1000000000000000000000011000 I"
b1000000000000000000000011000 (#
b10 ]
b10 #"
b10 R"
b1001 q
b1001 P"
b1001 d"
b1001 V
b1001 }
b1001 ~"
b1011 r
b1011 y
b1011 L"
b1011 V"
b1011 ["
b1011 }"
b1 d
b1 z
b0 Y
b0 |
b0 N"
b0 _
b0 B"
b0 h"
b0 Z
b0 $"
b0 3"
b0 E"
b0 o"
b0 [
b0 %"
b0 D"
b101 o
b101 ?"
b101 Z"
b101 p
b101 >"
b101 U"
b1010 n
b1010 @"
b0 c
b0 w
b0 A"
b1 X
b1 u
b1 F"
b101100 S
b101100 a"
b101100 /#
b101000 `
b101000 K"
b101000 .#
b101100 J
b101100 H"
b101100 ^"
b101100 ,#
b101000 K
b101000 '#
b101000 *#
b101000 +#
1!
#26
0!
#27
b0 R
b0 I"
b0 (#
b0 8"
b0 7
05
b0 6"
b0 j
1>
04
b0 +
b0 8
b0 <
b0 ;
03
1%
b11000 L
b11000 _"
b11000 )#
b11000 b"
b11000 M
b11000 `"
b11000 $#
b11000 U
b11000 t"
b11000 ##
b10 *
b10 9
b10 b
b10 ="
b10 s"
0|"
1!"
0""
0("
b110000 J
b110000 H"
b110000 ^"
b110000 ,#
b101100 K
b101100 '#
b101100 *#
b101100 +#
b110000 S
b110000 a"
b110000 /#
b101100 `
b101100 K"
b101100 .#
b1000000000000000000000011000 h
b1000000000000000000000011000 J"
b1000000000000000000000011000 r"
b101 V
b101 }
b101 ~"
b0 ^
b0 {
b0 ~
b0 M"
b1010 r
b1010 y
b1010 L"
b1010 V"
b1010 ["
b1010 }"
b0 d
b0 z
b1 Y
b1 |
b1 N"
b1011 q
b1011 P"
b1011 d"
b0 W
b0 S"
1!
#28
0!
#29
b1 8"
b1 7
15
b1010 6"
b11100 L
b11100 _"
b11100 )#
b10001010 j
0>
b11100 b"
14
b10001010 +
b10001010 8
b10001010 <
b1010 ;
13
0%
1""
1("
b0 T
b0 x
b0 j"
0n"
b0 *
b0 9
b0 b
b0 ="
b0 s"
b10001000000100001 R
b10001000000100001 I"
b10001000000100001 (#
b0 ]
b0 #"
b0 R"
b1010 q
b1010 P"
b1010 d"
b1 W
b1 S"
b10 _
b10 B"
b10 h"
b0 n
b0 @"
b0 X
b0 u
b0 F"
b100 S
b100 a"
b100 /#
b0 `
b0 K"
b0 .#
b0 h
b0 J"
b0 r"
b11100 J
b11100 H"
b11100 ^"
b11100 ,#
b11000 K
b11000 '#
b11000 *#
b11000 +#
1!
#30
0!
#31
b100000 L
b100000 _"
b100000 )#
b100000 b"
b10101100011000100000000000000001 R
b10101100011000100000000000000001 I"
b10101100011000100000000000000001 (#
b100001 P
b100001 u"
b10 C
b10 <"
b10 z"
b1 D
b1 -"
b1 1"
b1 :"
b1 x"
b1010 T
b1010 x
b1010 j"
1n"
0!"
b100000 J
b100000 H"
b100000 ^"
b100000 ,#
b11100 K
b11100 '#
b11100 *#
b11100 +#
b100000 S
b100000 a"
b100000 /#
b11100 `
b11100 K"
b11100 .#
b10001000000100001 h
b10001000000100001 J"
b10001000000100001 r"
b0 _
b0 B"
b0 h"
b1010 n
b1010 @"
b1 X
b1 u
b1 F"
b0 r
b0 y
b0 L"
b0 V"
b0 ["
b0 }"
b0 Y
b0 |
b0 N"
1!
#32
0!
#33
b0 R
b0 I"
b0 (#
b110 T
b110 x
b110 j"
b1 G
b1 i"
b1 m"
1s
1,
b0 8"
b1 7"
b1 :
12
16
b0 7
05
b100 6"
b10100 j
04
b10100 +
b10100 8
b10100 <
b100 ;
03
b100100 L
b100100 _"
b100100 )#
0""
0("
1!"
b10 @
b10 v
b10 +"
b10 q"
b0 M
b0 `"
b0 $#
b0 U
b0 t"
b0 ##
b0 P
b0 u"
b0 C
b0 <"
b0 z"
b10 D
b10 -"
b10 1"
b10 :"
b10 x"
b10 I
b10 )"
b10 4"
b11 E
b11 ."
b11 2"
b11 ;"
b11 w"
b101011 *
b101011 9
b101011 b
b101011 ="
b101011 s"
b100100 b"
b0 q
b0 P"
b0 d"
b0 W
b0 S"
b1010 r
b1010 y
b1010 L"
b1010 V"
b1010 ["
b1010 }"
b1 Y
b1 |
b1 N"
b10 \
b10 C"
b10 p"
b1 Z
b1 $"
b1 3"
b1 E"
b1 o"
b100100 S
b100100 a"
b100100 /#
b100000 `
b100000 K"
b100000 .#
b10101100011000100000000000000001 h
b10101100011000100000000000000001 J"
b10101100011000100000000000000001 r"
b100100 J
b100100 H"
b100100 ^"
b100100 ,#
b100000 K
b100000 '#
b100000 *#
b100000 +#
1!
#34
0!
