Cache_with_l2/test.vcd
$date
	Sun May 24 18:25:23 2020
$end
$version
	Icarus Verilog
$end
$timescale
	1s
$end
$scope module testbanch $end
$var reg 1 ! clk $end
$var reg 1 " rst $end
$scope module single_cpu $end
$var wire 1 ! clk $end
$var wire 1 # imm_command $end
$var wire 1 " rst $end
$var wire 1 $ ori $end
$var wire 1 % jump $end
$var wire 1 & imm $end
$var wire 1 ' bne $end
$var wire 1 ( andi $end
$var wire 1 ) addi $end
$var wire 6 * OpCode [5:0] $end
$var wire 9 + ConOut [8:0] $end
$scope module control_flow $end
$var wire 1 ) addi $end
$var wire 1 , alusrc $end
$var wire 1 ( andi $end
$var wire 1 - beq $end
$var wire 1 ' bne $end
$var wire 1 . branch $end
$var wire 1 & imm $end
$var wire 1 % j $end
$var wire 1 / lw $end
$var wire 1 0 memread $end
$var wire 1 1 memtoreg $end
$var wire 1 2 memwrite $end
$var wire 1 $ ori $end
$var wire 1 3 r $end
$var wire 1 4 regdst $end
$var wire 1 5 regwrite $end
$var wire 1 6 sw $end
$var wire 2 7 WB [1:0] $end
$var wire 9 8 Out [8:0] $end
$var wire 6 9 Op [5:0] $end
$var wire 3 : M [2:0] $end
$var wire 4 ; EXE [3:0] $end
$upscope $end
$scope module data_flow $end
$var wire 9 < ConOut [8:0] $end
$var wire 1 = ExtSel $end
$var wire 1 > IFFlush $end
$var wire 1 ? PCSrc $end
$var wire 1 ) addi $end
$var wire 1 ( andi $end
$var wire 1 ' bne $end
$var wire 1 ! clk $end
$var wire 1 # imm_command $end
$var wire 1 % jump $end
$var wire 1 $ ori $end
$var wire 1 " rst $end
$var wire 5 @ ws [4:0] $end
$var wire 32 A wd [31:0] $end
$var wire 5 B shamt [4:0] $end
$var wire 5 C rs3 [4:0] $end
$var wire 5 D rs2 [4:0] $end
$var wire 5 E rs1 [4:0] $end
$var wire 32 F rdata [31:0] $end
$var wire 32 G rd2_imm_out [31:0] $end
$var wire 32 H rd2 [31:0] $end
$var wire 32 I rd1 [31:0] $end
$var wire 32 J plus_4_out [31:0] $end
$var wire 32 K pc_out [31:0] $end
$var wire 32 L pc_in [31:0] $end
$var wire 32 M memory_word [31:0] $end
$var wire 32 N l2_word [31:0] $end
$var wire 1 O l2_hit $end
$var wire 3 P l2_counter [2:0] $end
$var wire 32 Q jabs [31:0] $end
$var wire 32 R imm_valuereg [31:0] $end
$var wire 16 S imm [15:0] $end
$var wire 1 T hit $end
$var wire 6 U funct [5:0] $end
$var wire 32 V ext [31:0] $end
$var wire 4 W counter [3:0] $end
$var wire 32 X command [31:0] $end
$var wire 32 Y br [31:0] $end
$var wire 32 Z alu_res [31:0] $end
$var wire 26 [ address [25:0] $end
$var wire 32 \ WriteDataOut [31:0] $end
$var wire 2 ] WBreg_mem_wb [1:0] $end
$var wire 2 ^ WBreg_idex [1:0] $end
$var wire 2 _ WBreg [1:0] $end
$var wire 5 ` RegRtreg [4:0] $end
$var wire 5 a RegRsreg [4:0] $end
$var wire 5 b RegRdreg [4:0] $end
$var wire 5 c RegRDreg_mem_wb [4:0] $end
$var wire 5 d RegRDreg [4:0] $end
$var wire 6 e RegOpCode [5:0] $end
$var wire 32 f PC_Plus4Reg [31:0] $end
$var wire 1 g PCWrite $end
$var wire 6 h OpCode [5:0] $end
$var wire 3 i Mreg_idex [2:0] $end
$var wire 3 j Mreg [2:0] $end
$var wire 32 k Memreg [31:0] $end
$var wire 32 l MUX3_forwardRD2_out [31:0] $end
$var wire 32 m MUX3_forwardRD1_out [31:0] $end
$var wire 1 n MEMWBWrite $end
$var wire 32 o InstReg [31:0] $end
$var wire 1 p IFIDWrite $end
$var wire 9 q IDcontrol [8:0] $end
$var wire 1 r IDEXWrite $end
$var wire 1 s HazMuxCon $end
$var wire 2 t ForwardB [1:0] $end
$var wire 2 u ForwardA [1:0] $end
$var wire 4 v EXreg [3:0] $end
$var wire 1 w EXMEMWrite $end
$var wire 32 x DataBreg [31:0] $end
$var wire 32 y DataAreg [31:0] $end
$var wire 1 z CacheStall $end
$var wire 32 { ALUreg_mem_wb [31:0] $end
$var wire 32 | ALUreg [31:0] $end
$var wire 1 } ALUSrc $end
$scope module EXMEM $end
$var wire 1 ! clock $end
$var wire 1 " rst $end
$var wire 32 ~ WriteDataIn [31:0] $end
$var wire 2 !" WB [1:0] $end
$var wire 5 "" RegRD [4:0] $end
$var wire 3 #" M [2:0] $end
$var wire 1 w EXMEMWrite $end
$var wire 32 $" ALUOut [31:0] $end
$var reg 32 %" ALUreg [31:0] $end
$var reg 3 &" Mreg [2:0] $end
$var reg 5 '" RegRDreg [4:0] $end
$var reg 2 (" WBreg [1:0] $end
$var reg 32 )" WriteDataOut [31:0] $end
$upscope $end
$scope module ForwardUnit $end
$var wire 5 *" MEMRegRd [4:0] $end
$var wire 1 +" MEM_RegWrite $end
$var wire 1 ," WB_RegWrite $end
$var wire 5 -" WBRegRd [4:0] $end
$var wire 5 ." EXRegRt [4:0] $end
$var wire 5 /" EXRegRs [4:0] $end
$var reg 2 0" ForwardA [1:0] $end
$var reg 2 1" ForwardB [1:0] $end
$upscope $end
$scope module GPRs $end
$var wire 1 2" RegWrite $end
$var wire 1 ! clk $end
$var wire 32 3" rd1 [31:0] $end
$var wire 32 4" rd2 [31:0] $end
$var wire 1 " rst $end
$var wire 5 5" ws [4:0] $end
$var wire 32 6" wd [31:0] $end
$var wire 5 7" rs2 [4:0] $end
$var wire 5 8" rs1 [4:0] $end
$var integer 32 9" i [31:0] $end
$upscope $end
$scope module HazardUnit $end
$var wire 1 :" EXMemRead $end
$var wire 5 ;" IDRegRt [4:0] $end
$var wire 5 <" IDRegRs [4:0] $end
$var wire 5 =" EXRegRt [4:0] $end
$var wire 1 z CacheStall $end
$var reg 1 w EXMEMWrite $end
$var reg 1 s HazMuxCon $end
$var reg 1 r IDEXWrite $end
$var reg 1 p IFIDWrite $end
$var reg 1 n MEMWBWrite $end
$var reg 1 g PCWrite $end
$upscope $end
$scope module IDEX $end
$var wire 32 >" DataA [31:0] $end
$var wire 32 ?" DataB [31:0] $end
$var wire 4 @" EX [3:0] $end
$var wire 1 r IDEXWrite $end
$var wire 3 A" M [2:0] $end
$var wire 2 B" WB [1:0] $end
$var wire 1 ! clock $end
$var wire 1 " rst $end
$var wire 32 C" imm_value [31:0] $end
$var wire 5 D" RegRt [4:0] $end
$var wire 5 E" RegRs [4:0] $end
$var wire 5 F" RegRd [4:0] $end
$var wire 6 G" OpCode [5:0] $end
$var reg 32 H" DataAreg [31:0] $end
$var reg 32 I" DataBreg [31:0] $end
$var reg 4 J" EXreg [3:0] $end
$var reg 3 K" Mreg [2:0] $end
$var reg 6 L" RegOpCode [5:0] $end
$var reg 5 M" RegRdreg [4:0] $end
$var reg 5 N" RegRsreg [4:0] $end
$var reg 5 O" RegRtreg [4:0] $end
$var reg 2 P" WBreg [1:0] $end
$var reg 32 Q" imm_valuereg [31:0] $end
$upscope $end
$scope module IFID $end
$var wire 1 p IFIDWrite $end
$var wire 1 ! clock $end
$var wire 1 > flush $end
$var wire 1 " rst $end
$var wire 32 R" PC_Plus4 [31:0] $end
$var wire 32 S" Inst [31:0] $end
$var reg 32 T" InstReg [31:0] $end
$var reg 32 U" PC_Plus4Reg [31:0] $end
$upscope $end
$scope module MEMWB $end
$var wire 32 V" ALUOut [31:0] $end
$var wire 1 n MEMWBWrite $end
$var wire 5 W" RegRD [4:0] $end
$var wire 2 X" WB [1:0] $end
$var wire 1 ! clock $end
$var wire 1 " rst $end
$var wire 32 Y" Memout [31:0] $end
$var reg 32 Z" ALUreg [31:0] $end
$var reg 32 [" Memreg [31:0] $end
$var reg 5 \" RegRDreg [4:0] $end
$var reg 2 ]" WBreg [1:0] $end
$upscope $end
$scope module MUX3_forwardRD1 $end
$var wire 2 ^" A [1:0] $end
$var wire 32 _" X0 [31:0] $end
$var wire 32 `" X2 [31:0] $end
$var wire 32 a" X1 [31:0] $end
$var reg 32 b" Out [31:0] $end
$upscope $end
$scope module MUX3_forwardRD2 $end
$var wire 2 c" A [1:0] $end
$var wire 32 d" X0 [31:0] $end
$var wire 32 e" X2 [31:0] $end
$var wire 32 f" X1 [31:0] $end
$var reg 32 g" Out [31:0] $end
$upscope $end
$scope module PCcontrol $end
$var wire 1 ? PCSrc $end
$var wire 1 % jump $end
$var wire 32 h" pc_plus_4 [31:0] $end
$var wire 32 i" out [31:0] $end
$var wire 32 j" jabs [31:0] $end
$var wire 32 k" br [31:0] $end
$var wire 32 l" PCMuxOut [31:0] $end
$upscope $end
$scope module WRcontrol $end
$var wire 1 m" WBSrc $end
$var wire 32 n" alu_out [31:0] $end
$var wire 32 o" data_memory_out [31:0] $end
$var reg 32 p" out [31:0] $end
$upscope $end
$scope module alu $end
$var wire 32 q" in1 [31:0] $end
$var wire 6 r" op_code [5:0] $end
$var wire 32 s" in2 [31:0] $end
$var reg 32 t" out [31:0] $end
$upscope $end
$scope module cache_memory_l1 $end
$var wire 1 z IsStall $end
$var wire 1 u" MemRead $end
$var wire 1 v" MemWrite $end
$var wire 32 w" addr [31:0] $end
$var wire 1 ! clk $end
$var wire 1 T hit $end
$var wire 1 " rst $end
$var wire 32 x" wdata [31:0] $end
$var wire 1 y" v $end
$var wire 26 z" tag [25:0] $end
$var wire 2 {" offset_plus_counter [1:0] $end
$var wire 2 |" offset [1:0] $end
$var wire 32 }" l2_word [31:0] $end
$var wire 2 ~" index [1:0] $end
$var wire 3 !# counter [2:0] $end
$var reg 32 "# cache_data_index [31:0] $end
$var reg 32 ## rdata [31:0] $end
$var integer 32 $# i [31:0] $end
$upscope $end
$scope module cache_memory_l2 $end
$var wire 1 %# MemRead $end
$var wire 1 &# MemWrite $end
$var wire 32 '# addr [31:0] $end
$var wire 1 ! clk $end
$var wire 1 O hit $end
$var wire 1 T l1_hit $end
$var wire 1 " rst $end
$var wire 32 (# wdata [31:0] $end
$var wire 1 )# v $end
$var wire 26 *# tag [25:0] $end
$var wire 3 +# offset_plus_counter [2:0] $end
$var wire 3 ,# offset [2:0] $end
$var wire 32 -# memory_word [31:0] $end
$var wire 3 .# l2_plus_offset [2:0] $end
$var wire 3 /# index [2:0] $end
$var wire 4 0# counter [3:0] $end
$var reg 32 1# cache_data_index [31:0] $end
$var reg 3 2# l2_counter [2:0] $end
$var reg 32 3# l2_plus_offset_index [31:0] $end
$var reg 32 4# rdata [31:0] $end
$var integer 32 5# i [31:0] $end
$upscope $end
$scope module choose_rd2_imm $end
$var wire 1 } BSrc $end
$var wire 32 6# imm [31:0] $end
$var wire 32 7# rd2 [31:0] $end
$var wire 32 8# out [31:0] $end
$upscope $end
$scope module choose_write_reg $end
$var wire 1 9# RegDst $end
$var wire 5 :# rs2 [4:0] $end
$var wire 5 ;# rs3 [4:0] $end
$var reg 5 <# ws [4:0] $end
$upscope $end
$scope module comand_parser $end
$var wire 32 =# command [31:0] $end
$var wire 6 ># op_code [5:0] $end
$var reg 26 ?# address [25:0] $end
$var reg 6 @# funct [5:0] $end
$var reg 16 A# imm [15:0] $end
$var reg 5 B# rs1 [4:0] $end
$var reg 5 C# rs2 [4:0] $end
$var reg 5 D# shamt [4:0] $end
$var reg 5 E# ws [4:0] $end
$upscope $end
$scope module data_memory $end
$var wire 1 F# MemRead $end
$var wire 1 G# MemWrite $end
$var wire 32 H# addr [31:0] $end
$var wire 1 ! clk $end
$var wire 1 O l2_hit $end
$var wire 1 " rst $end
$var wire 32 I# wdata [31:0] $end
$var reg 4 J# counter [3:0] $end
$var reg 32 K# rdata [31:0] $end
$var integer 32 L# i [31:0] $end
$upscope $end
$scope module extend $end
$var wire 26 M# in [25:0] $end
$var wire 32 N# out [31:0] $end
$upscope $end
$scope module imm_ext $end
$var wire 1 = ExtSel $end
$var wire 32 O# ext [31:0] $end
$var wire 16 P# imm [15:0] $end
$upscope $end
$scope module inst_memory $end
$var wire 32 Q# addr [31:0] $end
$var reg 32 R# inst [31:0] $end
$upscope $end
$scope module pc $end
$var wire 1 g PCWrite $end
$var wire 1 ! clk $end
$var wire 32 S# in [31:0] $end
$var wire 1 " rst $end
$var reg 32 T# out [31:0] $end
$upscope $end
$scope module plus_4 $end
$var wire 32 U# in [31:0] $end
$var wire 32 V# out [31:0] $end
$upscope $end
$scope module two_in_sum $end
$var wire 32 W# imm [31:0] $end
$var wire 32 X# in1 [31:0] $end
$var wire 32 Y# out [31:0] $end
$upscope $end
$upscope $end
$upscope $end
$upscope $end
$enddefinitions $end
#0
$dumpvars
bx Y#
b0 X#
bx W#
b100 V#
b0 U#
b0 T#
b100 S#
b10001100000000010000000000000001 R#
b0 Q#
bx P#
bx O#
b0xxxxxxxxxxxxxxxxxxxxxxxxxx N#
bx M#
b100000 L#
bx K#
b0 J#
b0 I#
b0 H#
0G#
0F#
b0 E#
b0 D#
b0 C#
b0 B#
bx A#
b0 @#
bx ?#
b0 >#
b0 =#
b0 <#
b0 ;#
b0 :#
09#
b0 8#
b0 7#
b0 6#
b1000 5#
bx 4#
bx 3#
b0 2#
bx 1#
b0 0#
b0 /#
b0 .#
bx -#
b0 ,#
b111 +#
b0 *#
0)#
b0 (#
b0 '#
0&#
0%#
b100 $#
bx ##
bx "#
b0 !#
b0 ~"
bx }"
b0 |"
b11 {"
b0 z"
0y"
b0 x"
b0 w"
0v"
0u"
b0 t"
b0 s"
b0 r"
b0 q"
b0 p"
b0 o"
b0 n"
0m"
b100 l"
bx k"
b0xxxxxxxxxxxxxxxxxxxxxxxxxx j"
b100 i"
b100 h"
b0 g"
b0 f"
b0 e"
b0 d"
b0 c"
b0 b"
b0 a"
b0 `"
b0 _"
b0 ^"
b0 ]"
b0 \"
b0 ["
b0 Z"
bx Y"
b0 X"
b0 W"
b0 V"
b0 U"
b0 T"
b10001100000000010000000000000001 S"
b100 R"
b0 Q"
b0 P"
b0 O"
b0 N"
b0 M"
b0 L"
b0 K"
b0 J"
b0 I"
b0 H"
b0 G"
b0 F"
b0 E"
b0 D"
bx C"
b1 B"
b0 A"
b1010 @"
b10 ?"
b10 >"
b0 ="
b0 <"
b0 ;"
0:"
b100000 9"
b0 8"
b0 7"
b0 6"
b0 5"
b10 4"
b10 3"
02"
b0 1"
b0 0"
b0 /"
b0 ."
b0 -"
0,"
0+"
b0 *"
b0 )"
b0 ("
b0 '"
b0 &"
b0 %"
b0 $"
b0 #"
b0 ""
b0 !"
b0 ~
0}
b0 |
b0 {
0z
b0 y
b0 x
1w
b0 v
b0 u
b0 t
1s
1r
b10001010 q
1p
b0 o
1n
b0 m
b0 l
b0 k
b0 j
b0 i
b0 h
1g
b0 f
b0 e
b0 d
b0 c
b0 b
b0 a
b0 `
b0 _
b0 ^
b0 ]
b0 \
bx [
b0 Z
bx Y
b10001100000000010000000000000001 X
b0 W
bx V
b0 U
0T
bx S
b0 R
b0xxxxxxxxxxxxxxxxxxxxxxxxxx Q
b0 P
0O
bx N
bx M
b100 L
b0 K
b100 J
b10 I
b10 H
b0 G
bx F
b0 E
b0 D
b0 C
b0 B
b0 A
b0 @
0?
0>
1=
b10001010 <
b1010 ;
b0 :
b0 9
b10001010 8
b1 7
06
15
14
13
02
01
00
0/
0.
0-
0,
b10001010 +
b0 *
0)
0(
0'
0&
0%
0$
z#
1"
0!
$end
#1
1}
1,
b10 A"
b11 B"
11
b10 :
10
1/
b11 7
15
b100 @"
b110100100 q
04
b110100100 +
b110100100 8
b110100100 <
b100 ;
03
b1000 Y
b1000 k"
b1000 Y#
b0 Q
b0 j"
b0 N#
b0 [
b0 ?#
b0 M#
b1 V
b1 C"
b1 O#
b1 W#
b1 S
b1 A#
b1 P#
b1 D
b1 7"
b1 ;"
b1 D"
b1 C#
b100011 *
b100011 9
b100011 h
b100011 G"
b100011 >#
b100 f
b100 U"
b100 X#
b10001100000000010000000000000001 o
b10001100000000010000000000000001 T"
b10001100000000010000000000000001 =#
b100000 9"
1!
#2
0!
0"
#3
b10 l
b10 ~
b10 g"
b10 7#
b10 m
b10 b"
b10 q"
b1000 L
b1000 i"
b1000 S#
b1000 l"
b100100000000010000000000000101 X
b100100000000010000000000000101 S"
b100100000000010000000000000101 R#
b11 Z
b11 $"
b11 t"
b1 @
b1 ""
b1 5"
b1 <#
b1 G
b1 s"
b1 8#
bx A
bx 6"
bx a"
bx f"
bx p"
b1000 J
b1000 R"
b1000 h"
b1000 V#
b100 K
b100 Q#
b100 T#
b100 U#
b100011 e
b100011 L"
b100011 r"
b1 `
b1 ."
b1 ="
b1 O"
b1 :#
b1 R
b1 Q"
b1 6#
b10 x
b10 I"
b10 d"
b10 y
b10 H"
b10 _"
b100 v
b100 J"
b10 i
b10 #"
b10 K"
b11 ^
b11 !"
b11 P"
bx k
bx ["
bx o"
1!
#4
0!
#5
b11 l
b11 ~
b11 g"
b11 7#
b101 Z
b101 $"
b101 t"
b11 G
b11 s"
b11 8#
0}
b0 ;
0,
05
b0 B"
b0 A"
b0 @"
b0 7
01
b0 +
b0 8
b0 <
b0 :
00
0/
b0 q
b10 {"
b10 +#
0n
0w
0r
0s
0p
0g
1z
b1100 L
b1100 i"
b1100 S#
b10 t
b10 1"
b10 c"
b11 |"
b11 .#
b11 ,#
1:"
1F#
1%#
1u"
1+"
b101 V
b101 C"
b101 O#
b101 W#
b101 S
b101 A#
b101 P#
b1001 *
b1001 9
b1001 h
b1001 G"
b1001 >#
b1100 l"
b10000001000010000000000000111 X
b10000001000010000000000000111 S"
b10000001000010000000000000111 R#
b10 \
b10 )"
b10 x"
b10 (#
b10 I#
b1 d
b1 '"
b1 *"
b1 W"
b11 |
b11 %"
b11 V"
b11 `"
b11 e"
b11 w"
b11 '#
b11 H#
b10 j
b10 &"
b11 _
b11 ("
b11 X"
b11100 Y
b11100 k"
b11100 Y#
b1000 f
b1000 U"
b1000 X#
b100100000000010000000000000101 o
b100100000000010000000000000101 T"
b100100000000010000000000000101 =#
b1100 J
b1100 R"
b1100 h"
b1100 V#
b1000 K
b1000 Q#
b1000 T#
b1000 U#
1!
#6
0!
#7
b11 +#
b1 W
b1 0#
b1 J#
b11 M
b11 -#
b11 K#
1!
#8
0!
#9
b100 +#
b11 1#
b10 W
b10 0#
b10 J#
b100 M
b100 -#
b100 K#
1!
#10
0!
#11
b101 +#
b11 W
b11 0#
b11 J#
b101 M
b101 -#
b101 K#
b100 1#
1!
#12
0!
#13
b110 +#
b101 1#
b100 W
b100 0#
b100 J#
b110 M
b110 -#
b110 K#
1!
#14
0!
#15
b111 +#
b101 W
b101 0#
b101 J#
b111 M
b111 -#
b111 K#
b110 1#
1!
#16
0!
#17
b0 +#
b111 1#
b110 W
b110 0#
b110 J#
b1000 M
b1000 -#
b1000 K#
1!
#18
0!
#19
b1 +#
b111 W
b111 0#
b111 J#
b1001 M
b1001 -#
b1001 K#
b1000 1#
1!
#20
0!
#21
b10 +#
b1001 1#
b1000 W
b1000 0#
b1000 J#
b1010 M
b1010 -#
b1010 K#
1!
#22
0!
#23
b11 +#
b1001 W
b1001 0#
b1001 J#
b1010 1#
1!
#24
0!
#25
1O
1)#
b10 +#
b0 W
b0 0#
b0 J#
1!
#26
0!
#27
b11 {"
b100 .#
b1 P
b1 !#
b1 2#
b11 3#
b11 N
b11 }"
b11 4#
1!
#28
0!
#29
b0 {"
b11 "#
b101 .#
b10 P
b10 !#
b10 2#
b100 3#
b100 N
b100 }"
b100 4#
1!
#30
0!
#31
b1 {"
b110 .#
b11 P
b11 !#
b11 2#
b101 3#
b101 N
b101 }"
b101 4#
b100 "#
1!
#32
0!
#33
b10 {"
b101 "#
b111 .#
b100 P
b100 !#
b100 2#
b110 3#
b110 N
b110 }"
b110 4#
1!
#34
0!
#35
b11 {"
b0 .#
b101 P
b101 !#
b101 2#
b110 "#
1!
#36
0!
#37
b11 F
b11 Y"
b11 ##
1n
1w
1r
0z
1T
1y"
b10 {"
b100 "#
b11 .#
b0 P
b0 !#
b0 2#
1!
#38
0!
#39
b111 Z
b111 $"
b111 t"
b101 G
b101 s"
b101 8#
b0 F
b0 Y"
b0 ##
b0 "#
b101 l
b101 ~
b101 g"
b101 7#
0n
0w
0r
1z
0T
0y"
b0 {"
b100 +#
b1 ~"
b1 |"
b101 .#
b101 ,#
b11 A
b11 6"
b11 a"
b11 f"
b11 p"
1m"
1,"
12"
b1001 e
b1001 L"
b1001 r"
b101 R
b101 Q"
b101 6#
b0 v
b0 J"
b0 i
b0 #"
b0 K"
b0 ^
b0 !"
b0 P"
b11 \
b11 )"
b11 x"
b11 (#
b11 I#
b101 |
b101 %"
b101 V"
b101 `"
b101 e"
b101 w"
b101 '#
b101 H#
b1 c
b1 -"
b1 \"
b11 {
b11 Z"
b11 n"
b11 k
b11 ["
b11 o"
b11 ]
b11 ]"
1!
#40
0!
#41
b1 {"
b11 H
b11 4"
b11 ?"
b110 .#
b1 P
b1 !#
b1 2#
b101 3#
b101 N
b101 }"
b101 4#
1!
#42
0!
#43
b10 {"
b111 .#
b10 P
b10 !#
b10 2#
b110 3#
b110 N
b110 }"
b110 4#
b101 "#
1!
#44
0!
#45
b11 {"
b110 "#
b0 .#
b11 P
b11 !#
b11 2#
b111 3#
b111 N
b111 }"
b111 4#
1!
#46
0!
#47
b0 {"
b1 .#
b100 P
b100 !#
b100 2#
b1000 3#
b1000 N
b1000 }"
b1000 4#
b111 "#
1!
#48
0!
#49
b1 {"
b1000 "#
b10 .#
b101 P
b101 !#
b101 2#
1!
#50
0!
#51
b101 F
b101 Y"
b101 ##
1n
1w
1r
0z
1T
b0 {"
1y"
b101 .#
b0 P
b0 !#
b0 2#
1!
#52
0!
#53
b101 Z
b101 $"
b101 t"
b11 G
b11 s"
b11 8#
b11 l
b11 ~
b11 g"
b11 7#
b10 {"
b110 +#
1s
1p
1g
b0 t
b0 1"
b0 c"
b101 A
b101 6"
b101 a"
b101 f"
b101 p"
b11 |"
b111 .#
b111 ,#
0:"
0F#
0%#
0u"
0+"
b101 {
b101 Z"
b101 n"
b101 k
b101 ["
b101 o"
b101 \
b101 )"
b101 x"
b101 (#
b101 I#
b111 |
b111 %"
b111 V"
b111 `"
b111 e"
b111 w"
b111 '#
b111 H#
b0 j
b0 &"
b0 _
b0 ("
b0 X"
b11 x
b11 I"
b11 d"
1!
#54
0!
#55
b0 X
b0 S"
b0 R#
1>
1?
b101 Z
b101 $"
b101 t"
b11 G
b11 s"
b11 8#
b0 B"
b100 A"
b1 @"
0}
b1000001 q
b100 :
1.
1-
b1 ;
0,
b1000001 +
b1000001 8
b1000001 <
b0 7
05
0&
0)
b101000 L
b101000 i"
b101000 S#
b0 {"
b100 +#
b10000 l"
b111 V
b111 C"
b111 O#
b111 W#
b111 S
b111 A#
b111 P#
b101 I
b101 3"
b101 >"
b1 E
b1 8"
b1 <"
b1 E"
b1 B#
b100 *
b100 9
b100 h
b100 G"
b100 >#
b1 |"
b101 .#
b101 ,#
0m"
0,"
02"
b10000 J
b10000 R"
b10000 h"
b10000 V#
b1100 K
b1100 Q#
b1100 T#
b1100 U#
b101000 Y
b101000 k"
b101000 Y#
b1100 f
b1100 U"
b1100 X#
b10000001000010000000000000111 o
b10000001000010000000000000111 T"
b10000001000010000000000000111 =#
b101 H
b101 4"
b101 ?"
b11 \
b11 )"
b11 x"
b11 (#
b11 I#
b101 |
b101 %"
b101 V"
b101 `"
b101 e"
b101 w"
b101 '#
b101 H#
b111 {
b111 Z"
b111 n"
b0 ]
b0 ]"
1!
#56
0!
#57
b101 G
b101 s"
b101 8#
b101 l
b101 ~
b101 g"
b101 7#
b101 m
b101 b"
b101 q"
0>
b1 B"
0?
b1 7
15
b0 A"
b1010 @"
b10001010 q
14
13
b0 :
0.
b10001010 +
b10001010 8
b10001010 <
b1010 ;
0-
b0 Z
b0 $"
b0 t"
b101100 L
b101100 i"
b101100 S#
b10 H
b10 4"
b10 ?"
b0 D
b0 7"
b0 ;"
b0 D"
b0 C#
b10 I
b10 3"
b10 >"
b0 E
b0 8"
b0 <"
b0 E"
b0 B#
b0 *
b0 9
b0 h
b0 G"
b0 >#
b101100 l"
b1000000000000000000000011000 X
b1000000000000000000000011000 S"
b1000000000000000000000011000 R#
b101 {
b101 Z"
b101 n"
b100 e
b100 L"
b100 r"
b1 a
b1 /"
b1 N"
b111 R
b111 Q"
b111 6#
b101 x
b101 I"
b101 d"
b101 y
b101 H"
b101 _"
b1 v
b1 J"
b100 i
b100 #"
b100 K"
b11100 Y
b11100 k"
b11100 Y#
b0 f
b0 U"
b0 X#
b0 o
b0 T"
b0 =#
b101100 J
b101100 R"
b101100 h"
b101100 V#
b101000 K
b101000 Q#
b101000 T#
b101000 U#
1!
#58
0!
#59
b10 G
b10 s"
b10 8#
b0 X
b0 S"
b0 R#
b10 m
b10 b"
b10 q"
b10 l
b10 ~
b10 g"
b10 7#
b0 B"
b0 7
05
b0 @"
b0 q
1>
04
b0 +
b0 8
b0 <
b0 ;
03
1%
b11000 L
b11000 i"
b11000 S#
b11 {"
b111 +#
b11000 l"
b11000 Q
b11000 j"
b11000 N#
b11000 [
b11000 ?#
b11000 M#
b10 *
b10 9
b10 h
b10 G"
b10 >#
b100 Z
b100 $"
b100 t"
b0 @
b0 ""
b0 5"
b0 <#
19#
b0 ~"
b0 |"
b0 .#
b0 ,#
b110000 J
b110000 R"
b110000 h"
b110000 V#
b101100 K
b101100 Q#
b101100 T#
b101100 U#
b1001000 Y
b1001000 k"
b1001000 Y#
b101100 f
b101100 U"
b101100 X#
b1000000000000000000000011000 o
b1000000000000000000000011000 T"
b1000000000000000000000011000 =#
b0 e
b0 L"
b0 r"
b0 `
b0 ."
b0 ="
b0 O"
b0 :#
b0 a
b0 /"
b0 N"
b10 x
b10 I"
b10 d"
b10 y
b10 H"
b10 _"
b1010 v
b1010 J"
b0 i
b0 #"
b0 K"
b1 ^
b1 !"
b1 P"
b101 \
b101 )"
b101 x"
b101 (#
b101 I#
b0 |
b0 %"
b0 V"
b0 `"
b0 e"
b0 w"
b0 '#
b0 H#
b100 j
b100 &"
1!
#60
0!
#61
b1 B"
b1 7
15
b1010 @"
b11100 L
b11100 i"
b11100 S#
b10001010 q
0>
b11100 l"
14
b10001010 +
b10001010 8
b10001010 <
b1010 ;
13
0%
b11 +#
b1 ~"
b100 .#
b100 ,#
1+"
b0 Z
b0 $"
b0 t"
09#
b0 *
b0 9
b0 h
b0 G"
b0 >#
b10001000000100001 X
b10001000000100001 S"
b10001000000100001 R#
b0 {
b0 Z"
b0 n"
b10 \
b10 )"
b10 x"
b10 (#
b10 I#
b0 d
b0 '"
b0 *"
b0 W"
b100 |
b100 %"
b100 V"
b100 `"
b100 e"
b100 w"
b100 '#
b100 H#
b0 j
b0 &"
b1 _
b1 ("
b1 X"
b10 e
b10 L"
b10 r"
b0 v
b0 J"
b0 ^
b0 !"
b0 P"
b11100 Y
b11100 k"
b11100 Y#
b0 f
b0 U"
b0 X#
b0 o
b0 T"
b0 =#
b11100 J
b11100 R"
b11100 h"
b11100 V#
b11000 K
b11000 Q#
b11000 T#
b11000 U#
1!
#62
0!
#63
b100000 L
b100000 i"
b100000 S#
b111 +#
b100000 l"
b10101100011000100000000000000001 X
b10101100011000100000000000000001 S"
b10101100011000100000000000000001 R#
b100001 U
b100001 @#
b10 C
b10 F"
b10 E#
b101 H
b101 4"
b101 ?"
b1 D
b1 7"
b1 ;"
b1 D"
b1 C#
b100 Z
b100 $"
b100 t"
19#
b0 ~"
b0 .#
b0 ,#
0+"
1,"
12"
b100000 J
b100000 R"
b100000 h"
b100000 V#
b11100 K
b11100 Q#
b11100 T#
b11100 U#
b111000 Y
b111000 k"
b111000 Y#
b11100 f
b11100 U"
b11100 X#
b10001000000100001 o
b10001000000100001 T"
b10001000000100001 =#
b0 e
b0 L"
b0 r"
b1010 v
b1010 J"
b1 ^
b1 !"
b1 P"
b0 |
b0 %"
b0 V"
b0 `"
b0 e"
b0 w"
b0 '#
b0 H#
b0 _
b0 ("
b0 X"
b0 c
b0 -"
b0 \"
b100 {
b100 Z"
b100 n"
b1 ]
b1 ]"
1!
#64
0!
#65
b101 l
b101 ~
b101 g"
b101 7#
b0 X
b0 S"
b0 R#
b1001 Z
b1001 $"
b1001 t"
b111 G
b111 s"
b111 8#
1}
1,
b0 B"
b1 A"
b1 :
12
16
b0 7
05
b100 @"
b10100 q
04
b10100 +
b10100 8
b10100 <
b100 ;
03
b11 +#
b100100 L
b100100 i"
b100100 S#
0,"
02"
b1 ~"
b100 .#
b100 ,#
1+"
b10 @
b10 ""
b10 5"
b10 <#
b0 Q
b0 j"
b0 N#
b0 [
b0 ?#
b0 M#
b1 V
b1 C"
b1 O#
b1 W#
b1 S
b1 A#
b1 P#
b0 U
b0 @#
b0 C
b0 F"
b0 E#
b10 H
b10 4"
b10 ?"
b10 D
b10 7"
b10 ;"
b10 D"
b10 C#
b11 E
b11 8"
b11 <"
b11 E"
b11 B#
b101011 *
b101011 9
b101011 h
b101011 G"
b101011 >#
b100100 l"
b0 {
b0 Z"
b0 n"
b0 ]
b0 ]"
b100 |
b100 %"
b100 V"
b100 `"
b100 e"
b100 w"
b100 '#
b100 H#
b1 _
b1 ("
b1 X"
b10 b
b10 M"
b10 ;#
b1 `
b1 ."
b1 ="
b1 O"
b1 :#
b101 x
b101 I"
b101 d"
b10 I
b10 3"
b10 >"
b100100 Y
b100100 k"
b100100 Y#
b100000 f
b100000 U"
b100000 X#
b10101100011000100000000000000001 o
b10101100011000100000000000000001 T"
b10101100011000100000000000000001 =#
b100100 J
b100100 R"
b100100 h"
b100100 V#
b100000 K
b100000 Q#
b100000 T#
b100000 U#
1!
#66
0!
